module github.com/swaggest/usecase

go 1.12

require (
	github.com/bool64/dev v0.1.12
	github.com/davecgh/go-spew v1.1.1 // indirect
	github.com/kr/text v0.2.0 // indirect
	github.com/stretchr/testify v1.6.1
	gopkg.in/check.v1 v1.0.0-20201130134442-10cb98267c6c // indirect
	gopkg.in/yaml.v3 v3.0.0-20210107192922-496545a6307b // indirect
)
